[
    {
        "key": "group_5d0c8978c764d",
        "title": "Locations Options",
        "fields": [
            {
                "key": "field_5d218cd2bb463",
                "label": "General",
                "name": "",
                "type": "tab",
                "instructions": "",
                "required": 0,
                "conditional_logic": 0,
                "wrapper": {
                    "width": "",
                    "class": "",
                    "id": ""
                },
                "placement": "top",
                "endpoint": 0
            },
            {
                "key": "field_5d56f65fdbb8c",
                "label": "Locator Title",
                "name": "locator_title",
                "type": "text",
                "instructions": "",
                "required": 0,
                "conditional_logic": 0,
                "wrapper": {
                    "width": "",
                    "class": "",
                    "id": ""
                },
                "default_value": "Find a Branch or ATM",
                "placeholder": "",
                "prepend": "",
                "append": "",
                "maxlength": ""
            },
            {
                "key": "field_5dc443f3b0620",
                "label": "Hours Label",
                "name": "hours_label",
                "type": "text",
                "instructions": "",
                "required": 0,
                "conditional_logic": 0,
                "wrapper": {
                    "width": "",
                    "class": "",
                    "id": ""
                },
                "default_value": "Hours",
                "placeholder": "",
                "prepend": "",
                "append": "",
                "maxlength": ""
            },
            {
                "key": "field_5dc4440fb0621",
                "label": "Drive-Thru  Hours Label",
                "name": "drive-thru__hours_label",
                "type": "text",
                "instructions": "",
                "required": 0,
                "conditional_logic": 0,
                "wrapper": {
                    "width": "",
                    "class": "",
                    "id": ""
                },
                "default_value": "Drive-Up Hours",
                "placeholder": "",
                "prepend": "",
                "append": "",
                "maxlength": ""
            },
            {
                "key": "field_5d0cf65a9438d",
                "label": "Map Near Me Icon",
                "name": "map_near_me_icon",
                "type": "image",
                "instructions": "",
                "required": 0,
                "conditional_logic": 0,
                "wrapper": {
                    "width": "100",
                    "class": "",
                    "id": ""
                },
                "return_format": "array",
                "preview_size": "thumbnail",
                "library": "uploadedTo",
                "min_width": "",
                "min_height": "",
                "min_size": "",
                "max_width": "",
                "max_height": "",
                "max_size": "",
                "mime_types": ""
            },
            {
                "key": "field_5db8fbfdc2c77",
                "label": "Filter Our Branches Title",
                "name": "filter_our_branches_title",
                "type": "text",
                "instructions": "",
                "required": 0,
                "conditional_logic": 0,
                "wrapper": {
                    "width": "",
                    "class": "",
                    "id": ""
                },
                "default_value": "Our Branches",
                "placeholder": "",
                "prepend": "",
                "append": "",
                "maxlength": ""
            },
            {
                "key": "field_5d0ceb35fc6fa",
                "label": "Filter Our Branches Icon",
                "name": "filter_our_branches_icon",
                "type": "image",
                "instructions": "",
                "required": 0,
                "conditional_logic": 0,
                "wrapper": {
                    "width": "50",
                    "class": "",
                    "id": ""
                },
                "return_format": "array",
                "preview_size": "thumbnail",
                "library": "all",
                "min_width": "",
                "min_height": "",
                "min_size": "",
                "max_width": "",
                "max_height": "",
                "max_size": "",
                "mime_types": ""
            },
            {
                "key": "field_5d0cf67b9438e",
                "label": "Map Our Branches Icon",
                "name": "map_our_branches_icon",
                "type": "image",
                "instructions": "",
                "required": 0,
                "conditional_logic": 0,
                "wrapper": {
                    "width": "50",
                    "class": "",
                    "id": ""
                },
                "return_format": "array",
                "preview_size": "thumbnail",
                "library": "all",
                "min_width": "",
                "min_height": "",
                "min_size": "",
                "max_width": "",
                "max_height": "",
                "max_size": "",
                "mime_types": ""
            },
            {
                "key": "field_5db8fd21c2c78",
                "label": "Filter Our ATMs Title",
                "name": "filter_our_atms_title",
                "type": "text",
                "instructions": "",
                "required": 0,
                "conditional_logic": 0,
                "wrapper": {
                    "width": "",
                    "class": "",
                    "id": ""
                },
                "default_value": "Our ATMs",
                "placeholder": "",
                "prepend": "",
                "append": "",
                "maxlength": ""
            },
            {
                "key": "field_5d0ceb48fc6fb",
                "label": "Filter Our ATMs Icon",
                "name": "filter_our_atms_icon",
                "type": "image",
                "instructions": "",
                "required": 0,
                "conditional_logic": 0,
                "wrapper": {
                    "width": "50",
                    "class": "",
                    "id": ""
                },
                "return_format": "array",
                "preview_size": "thumbnail",
                "library": "all",
                "min_width": "",
                "min_height": "",
                "min_size": "",
                "max_width": "",
                "max_height": "",
                "max_size": "",
                "mime_types": ""
            },
            {
                "key": "field_5d0cf68d9438f",
                "label": "Map Our ATMs Icon",
                "name": "map_our_atms_icon",
                "type": "image",
                "instructions": "",
                "required": 0,
                "conditional_logic": 0,
                "wrapper": {
                    "width": "50",
                    "class": "",
                    "id": ""
                },
                "return_format": "array",
                "preview_size": "thumbnail",
                "library": "all",
                "min_width": "",
                "min_height": "",
                "min_size": "",
                "max_width": "",
                "max_height": "",
                "max_size": "",
                "mime_types": ""
            },
            {
                "key": "field_5d0cf6259438b",
                "label": "Filter Coop Branches Icon",
                "name": "filter_coop_branches_icon",
                "type": "image",
                "instructions": "",
                "required": 0,
                "conditional_logic": 0,
                "wrapper": {
                    "width": "50",
                    "class": "",
                    "id": ""
                },
                "return_format": "array",
                "preview_size": "thumbnail",
                "library": "all",
                "min_width": "",
                "min_height": "",
                "min_size": "",
                "max_width": "",
                "max_height": "",
                "max_size": "",
                "mime_types": ""
            },
            {
                "key": "field_5d0ceb64fc6fc",
                "label": "Map Coop Branches Color",
                "name": "map_coop_branches_color",
                "type": "color_picker",
                "instructions": "",
                "required": 0,
                "conditional_logic": 0,
                "wrapper": {
                    "width": "50",
                    "class": "",
                    "id": ""
                },
                "default_value": "#015473"
            },
            {
                "key": "field_5d0cf6459438c",
                "label": "Filter Coop ATMs Icon",
                "name": "filter_coop_atms_icon",
                "type": "image",
                "instructions": "",
                "required": 0,
                "conditional_logic": 0,
                "wrapper": {
                    "width": "50",
                    "class": "",
                    "id": ""
                },
                "return_format": "array",
                "preview_size": "thumbnail",
                "library": "all",
                "min_width": "",
                "min_height": "",
                "min_size": "",
                "max_width": "",
                "max_height": "",
                "max_size": "",
                "mime_types": ""
            },
            {
                "key": "field_5d0ceb7afc6fd",
                "label": "Map Coop ATMs Color",
                "name": "map_coop_atms_color",
                "type": "color_picker",
                "instructions": "",
                "required": 0,
                "conditional_logic": 0,
                "wrapper": {
                    "width": "50",
                    "class": "",
                    "id": ""
                },
                "default_value": "#C21542"
            },
            {
                "key": "field_5db1ea2bd2c47",
                "label": "Filter Walgreens Icon",
                "name": "filter_walgreens_icon",
                "type": "image",
                "instructions": "",
                "required": 0,
                "conditional_logic": 0,
                "wrapper": {
                    "width": "50",
                    "class": "",
                    "id": ""
                },
                "return_format": "array",
                "preview_size": "thumbnail",
                "library": "all",
                "min_width": "",
                "min_height": "",
                "min_size": "",
                "max_width": "",
                "max_height": "",
                "max_size": "",
                "mime_types": ""
            },
            {
                "key": "field_5db1ea31d2c48",
                "label": "Map Walgreens Icon",
                "name": "map_walgreens_icon",
                "type": "image",
                "instructions": "",
                "required": 0,
                "conditional_logic": 0,
                "wrapper": {
                    "width": "50",
                    "class": "",
                    "id": ""
                },
                "return_format": "array",
                "preview_size": "thumbnail",
                "library": "all",
                "min_width": "",
                "min_height": "",
                "min_size": "",
                "max_width": "",
                "max_height": "",
                "max_size": "",
                "mime_types": ""
            },
            {
                "key": "field_5d218cf9bb464",
                "label": "Map",
                "name": "",
                "type": "tab",
                "instructions": "",
                "required": 0,
                "conditional_logic": 0,
                "wrapper": {
                    "width": "",
                    "class": "",
                    "id": ""
                },
                "placement": "top",
                "endpoint": 0
            },
            {
                "key": "field_5d0c89b3af136",
                "label": "Map Starting Location",
                "name": "map_starting_location",
                "type": "google_map",
                "instructions": "Provide an address the map will orient itself to when loaded.",
                "required": 0,
                "conditional_logic": 0,
                "wrapper": {
                    "width": "",
                    "class": "",
                    "id": ""
                },
                "center_lat": "",
                "center_lng": "",
                "zoom": "",
                "height": ""
            },
            {
                "key": "field_5d546a7b995ef",
                "label": "Map Starting Zoom",
                "name": "map_starting_zoom",
                "type": "number",
                "instructions": "This number sets the map starting zoom level.",
                "required": 0,
                "conditional_logic": 0,
                "wrapper": {
                    "width": "",
                    "class": "",
                    "id": ""
                },
                "default_value": 13,
                "placeholder": "",
                "prepend": "",
                "append": "",
                "min": "",
                "max": "",
                "step": ""
            },
            {
                "key": "field_5eea8418e47b6",
                "label": "Map Styles",
                "name": "map_styles",
                "type": "button_group",
                "instructions": "",
                "required": 0,
                "conditional_logic": 0,
                "wrapper": {
                    "width": "",
                    "class": "",
                    "id": ""
                },
                "choices": {
                    "standard": "Standard",
                    "silver": "Silver"
                },
                "allow_null": 0,
                "default_value": "",
                "layout": "horizontal",
                "return_format": "value"
            },
            {
                "key": "field_5d547333bf07e",
                "label": "Search Radius",
                "name": "",
                "type": "tab",
                "instructions": "",
                "required": 0,
                "conditional_logic": 0,
                "wrapper": {
                    "width": "",
                    "class": "",
                    "id": ""
                },
                "placement": "top",
                "endpoint": 0
            },
            {
                "key": "field_5d546b4c995f0",
                "label": "Credit Union Locations",
                "name": "radius_plugin",
                "type": "number",
                "instructions": "This is the max search radius in miles for your locations.",
                "required": 0,
                "conditional_logic": 0,
                "wrapper": {
                    "width": "",
                    "class": "",
                    "id": ""
                },
                "default_value": 50,
                "placeholder": "",
                "prepend": "",
                "append": "",
                "min": "",
                "max": "",
                "step": ""
            },
            {
                "key": "field_5d547274995f1",
                "label": "COOP Locations",
                "name": "radius_coop",
                "type": "number",
                "instructions": "This is the max search radius in miles for COOP locations. Please note, we can only fetch 100 shared branches and 100 shared ATMs in one query.",
                "required": 0,
                "conditional_logic": 0,
                "wrapper": {
                    "width": "",
                    "class": "",
                    "id": ""
                },
                "default_value": 10,
                "placeholder": "",
                "prepend": "",
                "append": "",
                "min": "",
                "max": "",
                "step": ""
            },
            {
                "key": "field_5d218d9d668fa",
                "label": "Enable Filters",
                "name": "",
                "type": "tab",
                "instructions": "",
                "required": 0,
                "conditional_logic": 0,
                "wrapper": {
                    "width": "",
                    "class": "",
                    "id": ""
                },
                "placement": "top",
                "endpoint": 0
            },
            {
                "key": "field_5d56eecf9443e",
                "label": "How it works",
                "name": "",
                "type": "message",
                "instructions": "",
                "required": 0,
                "conditional_logic": 0,
                "wrapper": {
                    "width": "",
                    "class": "",
                    "id": ""
                },
                "message": "Disable a filter to hide it. When only one filter is enabled, no filter buttons will be shown.",
                "new_lines": "wpautop",
                "esc_html": 0
            },
            {
                "key": "field_5d218e79668fd",
                "label": "Enable Branches",
                "name": "enable_branches",
                "type": "true_false",
                "instructions": "Shows and activates default Branches filter.",
                "required": 0,
                "conditional_logic": 0,
                "wrapper": {
                    "width": "",
                    "class": "",
                    "id": ""
                },
                "message": "",
                "default_value": 1,
                "ui": 1,
                "ui_on_text": "",
                "ui_off_text": ""
            },
            {
                "key": "field_5d218e92668fe",
                "label": "Enable ATMs",
                "name": "enable_atms",
                "type": "true_false",
                "instructions": "Shows and activates default ATMs filter.",
                "required": 0,
                "conditional_logic": 0,
                "wrapper": {
                    "width": "",
                    "class": "",
                    "id": ""
                },
                "message": "",
                "default_value": 1,
                "ui": 1,
                "ui_on_text": "",
                "ui_off_text": ""
            },
            {
                "key": "field_5d218e5f668fc",
                "label": "Show Coop Branches",
                "name": "enable_coop_branches",
                "type": "true_false",
                "instructions": "Shows Shared Branches filter option",
                "required": 0,
                "conditional_logic": 0,
                "wrapper": {
                    "width": "",
                    "class": "",
                    "id": ""
                },
                "message": "",
                "default_value": 1,
                "ui": 1,
                "ui_on_text": "",
                "ui_off_text": ""
            },
            {
                "key": "field_5f31695450edc",
                "label": "Activate Coop Branches",
                "name": "activate_coop_branches",
                "type": "true_false",
                "instructions": "Sets the Shared Branches filter option active when map loads.",
                "required": 0,
                "conditional_logic": 0,
                "wrapper": {
                    "width": "",
                    "class": "",
                    "id": ""
                },
                "message": "",
                "default_value": 1,
                "ui": 1,
                "ui_on_text": "",
                "ui_off_text": ""
            },
            {
                "key": "field_5d218df8668fb",
                "label": "Show Coop ATMs",
                "name": "enable_coop_atms",
                "type": "true_false",
                "instructions": "Shows Shared ATMs map filter option.",
                "required": 0,
                "conditional_logic": 0,
                "wrapper": {
                    "width": "",
                    "class": "",
                    "id": ""
                },
                "message": "",
                "default_value": 1,
                "ui": 1,
                "ui_on_text": "",
                "ui_off_text": ""
            },
            {
                "key": "field_5f31684750edb",
                "label": "Activate Coop ATMs",
                "name": "activate_coop_atms",
                "type": "true_false",
                "instructions": "Sets the Shared ATMs filter option active when map loads.",
                "required": 0,
                "conditional_logic": 0,
                "wrapper": {
                    "width": "",
                    "class": "",
                    "id": ""
                },
                "message": "",
                "default_value": 1,
                "ui": 1,
                "ui_on_text": "",
                "ui_off_text": ""
            },
            {
                "key": "field_5db1e8abd2c46",
                "label": "Show Walgreens",
                "name": "enable_walgreens",
                "type": "true_false",
                "instructions": "Shows Walgreens option.",
                "required": 0,
                "conditional_logic": 0,
                "wrapper": {
                    "width": "",
                    "class": "",
                    "id": ""
                },
                "message": "",
                "default_value": 1,
                "ui": 1,
                "ui_on_text": "",
                "ui_off_text": ""
            },
            {
                "key": "field_5f3169c750edd",
                "label": "Activate Walgreens",
                "name": "activate_walgreens",
                "type": "true_false",
                "instructions": "Sets the Walgreens filter option active when map loads.",
                "required": 0,
                "conditional_logic": 0,
                "wrapper": {
                    "width": "",
                    "class": "",
                    "id": ""
                },
                "message": "",
                "default_value": 1,
                "ui": 1,
                "ui_on_text": "",
                "ui_off_text": ""
            },
            {
                "key": "field_5e56a1853780d",
                "label": "Info",
                "name": "",
                "type": "tab",
                "instructions": "",
                "required": 0,
                "conditional_logic": 0,
                "wrapper": {
                    "width": "",
                    "class": "",
                    "id": ""
                },
                "placement": "top",
                "endpoint": 0,
                "wpml_cf_preferences": 0
            },
            {
                "key": "field_5e56a3a468096",
                "label": "Info Modal Title",
                "name": "info_modal_title",
                "type": "text",
                "instructions": "",
                "required": 0,
                "conditional_logic": 0,
                "wrapper": {
                    "width": "",
                    "class": "",
                    "id": ""
                },
                "wpml_cf_preferences": 0,
                "default_value": "",
                "placeholder": "",
                "prepend": "",
                "append": "",
                "maxlength": ""
            },
            {
                "key": "field_5e56a1bc3780e",
                "label": "Info",
                "name": "info_modal_content",
                "type": "wysiwyg",
                "instructions": "Enter the text to be shown in the location finder info modal",
                "required": 0,
                "conditional_logic": 0,
                "wrapper": {
                    "width": "",
                    "class": "",
                    "id": ""
                },
                "wpml_cf_preferences": 0,
                "default_value": "",
                "tabs": "all",
                "toolbar": "full",
                "media_upload": 1,
                "delay": 0
            },
            {
                "key": "field_5eac9d6f71228",
                "label": "Sort",
                "name": "",
                "type": "tab",
                "instructions": "",
                "required": 0,
                "conditional_logic": 0,
                "wrapper": {
                    "width": "",
                    "class": "",
                    "id": ""
                },
                "placement": "top",
                "endpoint": 0
            },
            {
                "key": "field_5eac9d7971229",
                "label": "Sort By",
                "name": "sort_by",
                "type": "select",
                "instructions": "",
                "required": 0,
                "conditional_logic": 0,
                "wrapper": {
                    "width": "",
                    "class": "",
                    "id": ""
                },
                "choices": {
                    "type": "Type"
                },
                "default_value": "type",
                "allow_null": 0,
                "multiple": 0,
                "ui": 0,
                "return_format": "value",
                "ajax": 0,
                "placeholder": ""
            },
            {
                "key": "field_5eac9da9ce865",
                "label": "Sort Order",
                "name": "sort_order",
                "type": "select",
                "instructions": "",
                "required": 0,
                "conditional_logic": 0,
                "wrapper": {
                    "width": "",
                    "class": "",
                    "id": ""
                },
                "choices": {
                    "ASC": "Ascending",
                    "DESC": "Descending"
                },
                "default_value": "ASC",
                "allow_null": 0,
                "multiple": 0,
                "ui": 0,
                "return_format": "value",
                "ajax": 0,
                "placeholder": ""
            },
            {
                "key": "field_622668290e766",
                "label": "Post Type Settings",
                "name": "",
                "type": "tab",
                "instructions": "",
                "required": 0,
                "conditional_logic": 0,
                "wrapper": {
                    "width": "",
                    "class": "",
                    "id": ""
                },
                "placement": "top",
                "endpoint": 0,
                "wpml_cf_preferences": 0
            },
            {
                "key": "field_6226683d0e767",
                "label": "Enable Locations Post Type Archive",
                "name": "enable_locations_post_type_archive",
                "type": "true_false",
                "instructions": "",
                "required": 0,
                "conditional_logic": 0,
                "wrapper": {
                    "width": "",
                    "class": "",
                    "id": ""
                },
                "message": "",
                "default_value": 1,
                "ui": 1,
                "ui_on_text": "",
                "ui_off_text": "",
                "wpml_cf_preferences": 0
            },
            {
                "key": "field_62266d660e768",
                "label": "Locations Post Type Archive slug",
                "name": "locations_post_type_archive_slug",
                "type": "text",
                "instructions": "",
                "required": 0,
                "conditional_logic": [
                    [
                        {
                            "field": "field_6226683d0e767",
                            "operator": "==",
                            "value": "1"
                        }
                    ]
                ],
                "wrapper": {
                    "width": "",
                    "class": "",
                    "id": ""
                },
                "wpml_cf_preferences": 0,
                "default_value": "\/locations",
                "placeholder": "",
                "prepend": "",
                "append": "",
                "maxlength": ""
            }
        ],
        "location": [
            [
                {
                    "param": "options_page",
                    "operator": "==",
                    "value": "acf-options-locations-options"
                }
            ]
        ],
        "menu_order": 0,
        "position": "normal",
        "style": "default",
        "label_placement": "top",
        "instruction_placement": "label",
        "hide_on_screen": "",
        "active": true,
        "description": ""
    }
]